{
"player_ip" : 5,
"front_back_ip" : 4,
"knees_ip" : 10,
"elbows_ip" : 3,
"left_elbow" : "right_controller",
"right_elbow" : "left_controller",
"front" : "right_controller",
"back" : "left_controller",
"left_knee" : "right_controller",
"right_knee" : "left_controller"
}
