{"player_ip" : 5,
"front_back_ip" : 4,
"knees_ip" : 2,
"elbows_ip" : 3,
"left_elbow" : "left_controller",
"right_elbow" : "right_controller",
"front" : "left_controller",
"back" : "right_controller",
"left_knee" : "left_controller",
"right_knee" : "right_controller",
"scale" : "0.08632295"}